processor.vcd
$date
	Wed Jan 21 11:50:26 2026
$end
$version
	QuestaSim Version 10.6c
$end
$timescale
	1ns
$end

$scope module tb_processor $end

$scope module proc_inst $end
$var reg 32 ! pc_out [31:0] $end
$var reg 32 " inst [31:0] $end
$var reg 32 # pc_id [31:0] $end
$var reg 32 $ inst_id [31:0] $end
$var reg 32 % rdata1 [31:0] $end
$var reg 32 & rdata2 [31:0] $end
$var reg 32 ' rf_wdata [31:0] $end
$var reg 5 ( rd_wb [4:0] $end
$var reg 1 ) rf_en_wb $end
$var reg 32 * alu_res [31:0] $end
$var reg 32 + alu_result_mem [31:0] $end
$var reg 5 , rd_mem [4:0] $end
$var reg 1 - rf_en_mem $end

$scope module imem_inst $end
$upscope $end

$scope module rfile_inst $end
$upscope $end

$scope module dmem_inst $end
$upscope $end
$upscope $end
$upscope $end
$enddefinitions $end
#0
$dumpvars
b0 !
b1100010000000010110011 "
b0 #
b0 $
b0 %
b0 &
b0 '
bx (
x)
b0 *
b0 +
b0 ,
0-
$end
#5
b0 (
0)
#25
b1100010000000010110011 $
b100 !
b1010001000000011 "
b100 &
b11 %
b111 *
#35
1-
b1 ,
b111 +
b1010001000000011 $
b100 #
b1000 !
b10100100010000000100011 "
b111 '
b0 &
b10 %
b10 *
#45
b1 (
1)
b100 ,
b10 +
b10100100010000000100011 $
b1000 #
b1100 !
bx "
bx '
b110 &
b101 %
b101 *
#55
b100 (
0-
b0 ,
b101 +
bx $
b1100 #
b10000 !
b101 '
bx &
bx %
bx *
#65
b0 (
0)
bx ,
bx +
b10000 #
b10100 !
bx '
#75
bx (
b10100 #
b11000 !
#85
b11000 #
b11100 !
#95
b11100 #
b100000 !
#105
b100000 #
b100100 !
#115
b100100 #
b101000 !
#125
b101000 #
b101100 !
#135
b101100 #
b110000 !
#145
b110000 #
b110100 !
#155
b110100 #
b111000 !
#165
b111000 #
b111100 !
#175
b111100 #
b1000000 !
#185
b1000000 #
b1000100 !
#195
b1000100 #
b1001000 !
#205
b1001000 #
b1001100 !
#215
b1001100 #
b1010000 !
#225
b1010000 #
b1010100 !
#235
b1010100 #
b1011000 !
#245
b1011000 #
b1011100 !
#255
b1011100 #
b1100000 !
#265
b1100000 #
b1100100 !
#275
b1100100 #
b1101000 !
#285
b1101000 #
b1101100 !
#295
b1101100 #
b1110000 !
#305
b1110000 #
b1110100 !
#315
b1110100 #
b1111000 !
#325
b1111000 #
b1111100 !
#335
b1111100 #
b10000000 !
#345
b10000000 #
b10000100 !
#355
b10000100 #
b10001000 !
#365
b10001000 #
b10001100 !
#375
b10001100 #
b10010000 !
#385
b10010000 #
b10010100 !
#395
b10010100 #
b10011000 !
#405
b10011000 #
b10011100 !
#415
b10011100 #
b10100000 !
#425
b10100000 #
b10100100 !
#435
b10100100 #
b10101000 !
#445
b10101000 #
b10101100 !
#455
b10101100 #
b10110000 !
#465
b10110000 #
b10110100 !
#475
b10110100 #
b10111000 !
#485
b10111000 #
b10111100 !
#495
b10111100 #
b11000000 !
#505
b11000000 #
b11000100 !
